…
```r
hpc_rev_Mo_Yr_Mean_Summary<-hpc_rev %>% group_by(Month_Yr) %>% summarise(GAP_Mean=mean(Global_active_power), GRP_Mean=mean(Global_reactive_power), Voltage_Mean=mean(Voltage), GI_Mean=mean(Global_intensity), SubM1_Mean=mean(Sub_metering_1),  SubM2_Mean=mean(Sub_metering_2), SubM3_Mean=mean(Sub_metering_3), GAP_WtPerMin_Mean=mean(GAP_WtPerMin), GAP_SubMet_Diff_Mean=mean(GAP_SubMet_Diff))
```

```
## Error in grouped_df_impl(data, unname(vars), drop): Column `DateTime` is of unsupported class POSIXlt/POSIXt
```

```r
hpc_rev_Mo_Yr_Mean_Summary
```

```
## # A tibble: 48 x 10
##    Month_Yr  GAP_Mean  GRP_Mean Voltage_Mean  GI_Mean SubM1_Mean
##       <chr>     <dbl>     <dbl>        <dbl>    <dbl>      <dbl>
##  1  2006-12 1.9012951 0.1313858     241.4411 8.029956  1.2486359
##  2  2007-01 1.5460339 0.1326761     240.9051 6.546915  1.2642367
##  3  2007-02 1.4010835 0.1136368     240.5194 5.914569  1.1802173
##  4  2007-03 1.3186270 0.1147468     240.5135 5.572979  1.3613432
##  5  2007-04 0.8911889 0.1187779     239.4000 3.825676  1.0658865
##  6  2007-05 0.9858618 0.1153426     235.1784 4.297464  1.6966174
##  7  2007-06 0.8268144 0.1463953     238.8755 3.603550  1.3826726
##  8  2007-07 0.6673668 0.1274812     237.6712 2.944133  0.9672650
##  9  2007-08 0.7641862 0.1128164     237.9372 3.312668  0.8124748
## 10  2007-09 0.9693182 0.1260108     239.4241 4.174610  1.2232279
## # ... with 38 more rows, and 4 more variables: SubM2_Mean <dbl>,
## #   SubM3_Mean <dbl>, GAP_WtPerMin_Mean <dbl>, GAP_SubMet_Diff_Mean <dbl>
```
…
